%YAML 1.1
%TAG !u! tag:unity3d.com,2011:
--- !u!114 &11400000
MonoBehaviour:
  m_ObjectHideFlags: 0
  m_CorrespondingSourceObject: {fileID: 0}
  m_PrefabInstance: {fileID: 0}
  m_PrefabAsset: {fileID: 0}
  m_GameObject: {fileID: 0}
  m_Enabled: 1
  m_EditorHideFlags: 0
  m_Script: {fileID: 11500000, guid: 6405ddbb8e3a648439f93f74d19d9fbc, type: 3}
  m_Name: Card I
  m_EditorClassIdentifier: 
  question_card: {fileID: 21300000, guid: 50a9496105b277b4ea619456316e51cd, type: 3}
  angle_choice_cards:
  - {fileID: 21300000, guid: d9e2baf3105172641a1dd2779fb50944, type: 3}
  - {fileID: 21300000, guid: 5cafe19276bd5b14e83d98be62a7c495, type: 3}
  - {fileID: 21300000, guid: 37ba6a5f36381a64fb8256b1a65faf82, type: 3}
  - {fileID: 21300000, guid: ffcb4175c9d4aac46bc3935a6109b898, type: 3}
