%YAML 1.1
%TAG !u! tag:unity3d.com,2011:
--- !u!114 &11400000
MonoBehaviour:
  m_ObjectHideFlags: 0
  m_CorrespondingSourceObject: {fileID: 0}
  m_PrefabInstance: {fileID: 0}
  m_PrefabAsset: {fileID: 0}
  m_GameObject: {fileID: 0}
  m_Enabled: 1
  m_EditorHideFlags: 0
  m_Script: {fileID: 11500000, guid: 6405ddbb8e3a648439f93f74d19d9fbc, type: 3}
  m_Name: Card H
  m_EditorClassIdentifier: 
  question_card: {fileID: 21300000, guid: 49c4bc35891c47247a6538db60756c36, type: 3}
  angle_choice_cards:
  - {fileID: 21300000, guid: 9edd801f9f3f729499d49d7bfbf7001d, type: 3}
  - {fileID: 21300000, guid: 8dda2ff526930854e9451191efadb271, type: 3}
  - {fileID: 21300000, guid: 0ae2ccc4ee13b7c41b7f1b0684333202, type: 3}
  - {fileID: 21300000, guid: fa566aa5d8e8ba44f96ec5ff51cad9cf, type: 3}
