%YAML 1.1
%TAG !u! tag:unity3d.com,2011:
--- !u!114 &11400000
MonoBehaviour:
  m_ObjectHideFlags: 0
  m_CorrespondingSourceObject: {fileID: 0}
  m_PrefabInstance: {fileID: 0}
  m_PrefabAsset: {fileID: 0}
  m_GameObject: {fileID: 0}
  m_Enabled: 1
  m_EditorHideFlags: 0
  m_Script: {fileID: 11500000, guid: 6405ddbb8e3a648439f93f74d19d9fbc, type: 3}
  m_Name: Card I
  m_EditorClassIdentifier: 
  question_card: {fileID: 21300000, guid: b7ed290a7c9ec5a47a5308c2800ff0e8, type: 3}
  angle_choice_cards:
  - {fileID: 21300000, guid: f1f051ad32d6b0741b1dad82739d09eb, type: 3}
  - {fileID: 21300000, guid: 9f96c7b41251f1c4281b073336fd5888, type: 3}
  - {fileID: 21300000, guid: 5b2bcc7d8e472574d801502a2d15b2fe, type: 3}
  - {fileID: 21300000, guid: 7c8810d68b94614429f6ba61ea85c823, type: 3}
