%YAML 1.1
%TAG !u! tag:unity3d.com,2011:
--- !u!114 &11400000
MonoBehaviour:
  m_ObjectHideFlags: 0
  m_CorrespondingSourceObject: {fileID: 0}
  m_PrefabInstance: {fileID: 0}
  m_PrefabAsset: {fileID: 0}
  m_GameObject: {fileID: 0}
  m_Enabled: 1
  m_EditorHideFlags: 0
  m_Script: {fileID: 11500000, guid: b9bcc7abe66fcbf40a51334e68186bd1, type: 3}
  m_Name: 25 Simultaneously with Applause Unbelievable
  m_EditorClassIdentifier: 
  name: after_applause_unbelievable
  clip: {fileID: 8300000, guid: ca3db8650da245342a9b6b29bd4ac39b, type: 3}
  volume: 0.3
  awake: 0
  loop: 0
  aud_source: {fileID: 0}
