%YAML 1.1
%TAG !u! tag:unity3d.com,2011:
--- !u!114 &11400000
MonoBehaviour:
  m_ObjectHideFlags: 0
  m_CorrespondingSourceObject: {fileID: 0}
  m_PrefabInstance: {fileID: 0}
  m_PrefabAsset: {fileID: 0}
  m_GameObject: {fileID: 0}
  m_Enabled: 1
  m_EditorHideFlags: 0
  m_Script: {fileID: 11500000, guid: b9bcc7abe66fcbf40a51334e68186bd1, type: 3}
  m_Name: 27 Once Logo Has Appeared VO Super Genius
  m_EditorClassIdentifier: 
  name: super_genius_vo
  clip: {fileID: 8300000, guid: f576415af743bb649b0c53bc7c10a97c, type: 3}
  volume: 0.3
  awake: 0
  loop: 0
  aud_source: {fileID: 0}
