%YAML 1.1
%TAG !u! tag:unity3d.com,2011:
--- !u!1 &8607655488667597177
GameObject:
  m_ObjectHideFlags: 0
  m_CorrespondingSourceObject: {fileID: 0}
  m_PrefabInstance: {fileID: 0}
  m_PrefabAsset: {fileID: 0}
  serializedVersion: 6
  m_Component:
  - component: {fileID: 8607655488667597176}
  - component: {fileID: 8607655488667597179}
  m_Layer: 0
  m_Name: AudioManager2
  m_TagString: Untagged
  m_Icon: {fileID: 0}
  m_NavMeshLayer: 0
  m_StaticEditorFlags: 0
  m_IsActive: 1
--- !u!4 &8607655488667597176
Transform:
  m_ObjectHideFlags: 0
  m_CorrespondingSourceObject: {fileID: 0}
  m_PrefabInstance: {fileID: 0}
  m_PrefabAsset: {fileID: 0}
  m_GameObject: {fileID: 8607655488667597177}
  m_LocalRotation: {x: 0, y: 0, z: 0, w: 1}
  m_LocalPosition: {x: -0.57304454, y: -0.6556232, z: 6427.5996}
  m_LocalScale: {x: 1, y: 1, z: 1}
  m_Children: []
  m_Father: {fileID: 0}
  m_RootOrder: 0
  m_LocalEulerAnglesHint: {x: 0, y: 0, z: 0}
--- !u!114 &8607655488667597179
MonoBehaviour:
  m_ObjectHideFlags: 0
  m_CorrespondingSourceObject: {fileID: 0}
  m_PrefabInstance: {fileID: 0}
  m_PrefabAsset: {fileID: 0}
  m_GameObject: {fileID: 8607655488667597177}
  m_Enabled: 1
  m_EditorHideFlags: 0
  m_Script: {fileID: 11500000, guid: 6c64e7d3677431f43a021959bbebf68d, type: 3}
  m_Name: 
  m_EditorClassIdentifier: 
  sound:
  - name: 16_game_bg_sfx
    clip: {fileID: 8300000, guid: 3facff94bd6dfe04dbf66d98ad9b86a8, type: 3}
    volume: 0.2
    awake: 0
    loop: 0
    aud_source: {fileID: 0}
  - name: info_but_press_sfx
    clip: {fileID: 8300000, guid: c1b3e3ce29ae86240bd9153af04019c5, type: 3}
    volume: 0.2
    awake: 0
    loop: 0
    aud_source: {fileID: 0}
  - name: home_sfx
    clip: {fileID: 8300000, guid: bfa989419ae3bf64aa7dc55ad09c062f, type: 3}
    volume: 1
    awake: 0
    loop: 0
    aud_source: {fileID: 0}
  - name: zwoop_blue_screen_sfx
    clip: {fileID: 8300000, guid: aacc1891cf425a341a5d6ecb1509ea3d, type: 3}
    volume: 0.2
    awake: 0
    loop: 0
    aud_source: {fileID: 0}
  - name: question_card_flip_sfx
    clip: {fileID: 8300000, guid: 394de5e1442c04347a0265a56cf5b5b2, type: 3}
    volume: 0.2
    awake: 0
    loop: 0
    aud_source: {fileID: 0}
  - name: card_flip_sfx
    clip: {fileID: 8300000, guid: bc2d3c71dadf3a7449e134b8f4a40ac9, type: 3}
    volume: 0.2
    awake: 0
    loop: 0
    aud_source: {fileID: 0}
  - name: quote_drag_answer_sfx
    clip: {fileID: 8300000, guid: b36df97aafa37bc47b68f0a465f5ae89, type: 3}
    volume: 0.2
    awake: 0
    loop: 0
    aud_source: {fileID: 0}
  - name: swoosh_blue_screen_sfx
    clip: {fileID: 8300000, guid: 058a9001f382b454b953c87dd2c3e229, type: 3}
    volume: 0.2
    awake: 0
    loop: 0
    aud_source: {fileID: 0}
  - name: correct_answer_on_skat_sfx
    clip: {fileID: 8300000, guid: 2f60b8a1e40798e44b6ce27a6d7f63e9, type: 3}
    volume: 0.2
    awake: 0
    loop: 0
    aud_source: {fileID: 0}
  - name: cor_spin_sfx
    clip: {fileID: 8300000, guid: 82663c9285bd6ce41b420614de38eb96, type: 3}
    volume: 0.2
    awake: 0
    loop: 0
    aud_source: {fileID: 0}
  - name: cor_after_spin_sfx
    clip: {fileID: 8300000, guid: 701b55c564f6839418b80f19cf36dcbd, type: 3}
    volume: 0.2
    awake: 0
    loop: 0
    aud_source: {fileID: 0}
  - name: inc_a
    clip: {fileID: 8300000, guid: f7cad0e1987ff83409fb64a64178e514, type: 3}
    volume: 0.2
    awake: 0
    loop: 0
    aud_source: {fileID: 0}
  - name: inc_b
    clip: {fileID: 8300000, guid: d4bcabd48b6401046ab44d1a372fc5ba, type: 3}
    volume: 0.2
    awake: 0
    loop: 0
    aud_source: {fileID: 0}
  - name: inc_c
    clip: {fileID: 8300000, guid: f901b61130e85d8449a817ffb4d3ee7a, type: 3}
    volume: 0.2
    awake: 0
    loop: 0
    aud_source: {fileID: 0}
  - name: blue_page_sfx
    clip: {fileID: 8300000, guid: f831cb89a222d5c4cbeb24201e117741, type: 3}
    volume: 0.2
    awake: 0
    loop: 0
    aud_source: {fileID: 0}
  - name: no_guessing_sfx
    clip: {fileID: 8300000, guid: 2075164c09736764e9f9f16f7c93f43c, type: 3}
    volume: 0.2
    awake: 0
    loop: 0
    aud_source: {fileID: 0}
  - name: danger_vo_sfx
    clip: {fileID: 8300000, guid: f1d16c9b02e28fa4d82d2201c1c6cd72, type: 3}
    volume: 0.2
    awake: 0
    loop: 0
    aud_source: {fileID: 0}
  - name: second_wrong_answer_sfx
    clip: {fileID: 8300000, guid: 9ad7c9a355c711b49a72916ef31855e5, type: 3}
    volume: 0.2
    awake: 0
    loop: 0
    aud_source: {fileID: 0}
  - name: after_start_again_vo_oh_darn_sfx
    clip: {fileID: 8300000, guid: 4c0fed6672da6754f9e66c6c15c61561, type: 3}
    volume: 0.2
    awake: 0
    loop: 0
    aud_source: {fileID: 0}
  - name: incorrect_vo_come_on_sfx
    clip: {fileID: 8300000, guid: 6761a3b256526544d8fc9e0bf6d30759, type: 3}
    volume: 0.2
    awake: 0
    loop: 0
    aud_source: {fileID: 0}
  - name: incorrect_vo_oh_sfx
    clip: {fileID: 8300000, guid: ee9876d527c938a41870f0e4be897f6a, type: 3}
    volume: 0.2
    awake: 0
    loop: 0
    aud_source: {fileID: 0}
  - name: correct_vo_excellent_sfx
    clip: {fileID: 8300000, guid: 441c150e29998af4c90777d2d2e057bb, type: 3}
    volume: 0.2
    awake: 0
    loop: 0
    aud_source: {fileID: 0}
  - name: correct_vo_nice_sfx
    clip: {fileID: 8300000, guid: 244d728c19a4de74aa8c991d6869ad5c, type: 3}
    volume: 0.2
    awake: 0
    loop: 0
    aud_source: {fileID: 0}
  - name: correct_vo_great_job_sfx
    clip: {fileID: 8300000, guid: 66f90b4903ced214fbe628d6279b6a91, type: 3}
    volume: 0.2
    awake: 0
    loop: 0
    aud_source: {fileID: 0}
  - name: applause_sfx
    clip: {fileID: 8300000, guid: d6f700d2730cd0145966ba8eb1dcc36f, type: 3}
    volume: 0.2
    awake: 0
    loop: 0
    aud_source: {fileID: 0}
  - name: unbelievable_sfx
    clip: {fileID: 8300000, guid: ca3db8650da245342a9b6b29bd4ac39b, type: 3}
    volume: 0.2
    awake: 0
    loop: 0
    aud_source: {fileID: 0}
  - name: pre_super_genius_sfx
    clip: {fileID: 8300000, guid: 98bd8fb59007b1e4da4df8a6686e6839, type: 3}
    volume: 0.2
    awake: 0
    loop: 0
    aud_source: {fileID: 0}
  - name: super_genius_sfx
    clip: {fileID: 8300000, guid: f576415af743bb649b0c53bc7c10a97c, type: 3}
    volume: 0.2
    awake: 0
    loop: 0
    aud_source: {fileID: 0}
  - name: congrats_sfx
    clip: {fileID: 8300000, guid: fe8eb1f78222b4749b84b37a4bd1ce40, type: 3}
    volume: 0.2
    awake: 0
    loop: 0
    aud_source: {fileID: 0}
  - name: you_did_it_sfx
    clip: {fileID: 8300000, guid: 6196d11b618f5b2488f34e9875b16196, type: 3}
    volume: 0.2
    awake: 0
    loop: 0
    aud_source: {fileID: 0}
  - name: woo_yeah_sfx
    clip: {fileID: 8300000, guid: 86169fdcb36e6d247b057b97ea7a4a23, type: 3}
    volume: 0.2
    awake: 0
    loop: 0
    aud_source: {fileID: 0}
  - name: explo_sfx
    clip: {fileID: 8300000, guid: 5869d76ca65e0884da2093fc2c717824, type: 3}
    volume: 0.2
    awake: 0
    loop: 0
    aud_source: {fileID: 0}
  - name: rubber_sfx
    clip: {fileID: 8300000, guid: 1bde735633340ac4bbe2bf8fda29dbbe, type: 3}
    volume: 0.2
    awake: 0
    loop: 0
    aud_source: {fileID: 0}
  - name: skate_bg_sfx
    clip: {fileID: 8300000, guid: b0eed9d1d93b8954abaaa13f34edea9c, type: 3}
    volume: 0.2
    awake: 0
    loop: 0
    aud_source: {fileID: 0}
  - name: bg_audio_sfx
    clip: {fileID: 8300000, guid: ca5cee6e8ec889945ac28fe9ea33b39e, type: 3}
    volume: 0.05
    awake: 0
    loop: 1
    aud_source: {fileID: 0}
  - name: bg_audio2_sfx
    clip: {fileID: 8300000, guid: a2e772a45ffba8a4eb4f776724f40098, type: 3}
    volume: 0.05
    awake: 0
    loop: 1
    aud_source: {fileID: 0}
