%YAML 1.1
%TAG !u! tag:unity3d.com,2011:
--- !u!1 &3904821332693338465
GameObject:
  m_ObjectHideFlags: 0
  m_CorrespondingSourceObject: {fileID: 0}
  m_PrefabInstance: {fileID: 0}
  m_PrefabAsset: {fileID: 0}
  serializedVersion: 6
  m_Component:
  - component: {fileID: 3904821332693338467}
  - component: {fileID: 3904821332693338464}
  m_Layer: 0
  m_Name: AudioManager
  m_TagString: Untagged
  m_Icon: {fileID: 0}
  m_NavMeshLayer: 0
  m_StaticEditorFlags: 0
  m_IsActive: 1
--- !u!4 &3904821332693338467
Transform:
  m_ObjectHideFlags: 0
  m_CorrespondingSourceObject: {fileID: 0}
  m_PrefabInstance: {fileID: 0}
  m_PrefabAsset: {fileID: 0}
  m_GameObject: {fileID: 3904821332693338465}
  m_LocalRotation: {x: 0, y: 0, z: 0, w: 1}
  m_LocalPosition: {x: 540.5576, y: 354.43195, z: -185.25}
  m_LocalScale: {x: 1, y: 1, z: 1}
  m_Children: []
  m_Father: {fileID: 0}
  m_RootOrder: 0
  m_LocalEulerAnglesHint: {x: 0, y: 0, z: 0}
--- !u!114 &3904821332693338464
MonoBehaviour:
  m_ObjectHideFlags: 0
  m_CorrespondingSourceObject: {fileID: 0}
  m_PrefabInstance: {fileID: 0}
  m_PrefabAsset: {fileID: 0}
  m_GameObject: {fileID: 3904821332693338465}
  m_Enabled: 1
  m_EditorHideFlags: 0
  m_Script: {fileID: 11500000, guid: 85faf9094e44d0b4981ef5be7152dbe7, type: 3}
  m_Name: 
  m_EditorClassIdentifier: 
  audio_details:
  - {fileID: 11400000, guid: c9c4aae56e070f14ea1f5329c42b1d88, type: 2}
  - {fileID: 11400000, guid: 87b1b7d86f78f5d409a137b63424f52a, type: 2}
  - {fileID: 11400000, guid: fc4db9406048491459ed2c08d1dc1991, type: 2}
  - {fileID: 11400000, guid: 5ff2811151c04c94ba615e4f98759498, type: 2}
  - {fileID: 11400000, guid: eb47c686567eb4441bb9a4fe169a18a8, type: 2}
  - {fileID: 11400000, guid: b295dc569f92b714b8a96572c8fce872, type: 2}
  - {fileID: 11400000, guid: 41846206c2b51cd41aff1d4aaf67d37c, type: 2}
  - {fileID: 11400000, guid: d7569db427874c7408ee3c715d04e1ad, type: 2}
  - {fileID: 11400000, guid: 0d471e3c9a36eb24d9eac2d80f72c8e2, type: 2}
  - {fileID: 11400000, guid: 06d777b26882f614b9b6445ea5c908dc, type: 2}
  - {fileID: 11400000, guid: 3bc3360537be32b43b315c7878f7deab, type: 2}
  - {fileID: 11400000, guid: 4c886c0a1ecfa2c41b57b755de8b8fe1, type: 2}
  - {fileID: 11400000, guid: b3a9a9b8fc4b8124eb5cd92635e3500e, type: 2}
  - {fileID: 11400000, guid: 351305ffdb3df5246b37deac5c2348cd, type: 2}
  - {fileID: 11400000, guid: fb6b669154f1e1049a892faae45409e7, type: 2}
  - {fileID: 11400000, guid: 6b5ab3bdbcbd26548ae1ec844b0ab365, type: 2}
  - {fileID: 11400000, guid: 5b06cf711eb6f364aa7445761298ff47, type: 2}
  - {fileID: 11400000, guid: 793054a0eb3fbef41ae0045a0b90ae52, type: 2}
  - {fileID: 11400000, guid: aa485cf04dee903468a68ca0138d8feb, type: 2}
  - {fileID: 11400000, guid: f7dbfcfabfafd7743b531f1e4d056fdb, type: 2}
  - {fileID: 11400000, guid: 302cc9ca56f033143a5e536ea7e204f1, type: 2}
  - {fileID: 11400000, guid: 0c06513a994211c4c8bfcf3ace6b538e, type: 2}
  - {fileID: 11400000, guid: 23736cf724edaf54681b8315f626b15d, type: 2}
  - {fileID: 11400000, guid: ad835fb30ec400843a9517f013178bf9, type: 2}
  - {fileID: 11400000, guid: 378b89395ff6b1848912912b8bb9cc05, type: 2}
  - {fileID: 11400000, guid: 8ee2bef896289a846b94a85717511d20, type: 2}
  - {fileID: 11400000, guid: fd2e368c62cc9c74e813e74b3f8b3335, type: 2}
  - {fileID: 11400000, guid: 3e3a8661d478e76438120f0a4d451c75, type: 2}
  - {fileID: 11400000, guid: e0d4f65467d089146b85558d71d44b90, type: 2}
  - {fileID: 11400000, guid: fc6b775c5d4f34a4aad49e2302355c4b, type: 2}
  - {fileID: 11400000, guid: f37a8ea0e47c56e47bcfdfe63ba516f9, type: 2}
  - {fileID: 11400000, guid: 515117ff9ee81314888664b71cf6e9c7, type: 2}
  - {fileID: 11400000, guid: 8058dbc06f7d9034385926de22d279c4, type: 2}
  - {fileID: 11400000, guid: aacea1c544195e6499d29142cff3bd29, type: 2}
  - {fileID: 11400000, guid: 89f17b97617bdb44391622dac906be60, type: 2}
